Name                       Stmts   Miss  Cover
----------------------------------------------
src/syllabub/__init__.py       0      0   100%
src/syllabub/metadata.py     128     69    46%
tests/test_cli.py              4      0   100%
----------------------------------------------
TOTAL                        132     69    48%
